{
    "componentChunkName": "component---src-templates-pages-blog-js",
    "path": "/blog/7",
    "result": {"data":{"PageDetails":{"edges":[{"node":{"id":"cG9zdDo0MDk=","fmmCore":{"languageCode":"es","frontendSlug":"/blog","seoDescription":"Lee artículos relacionados con varios métodos anticonceptivos. Hablamos de sexo y planificación familiar. Lee aquí sobre sexo y aprende a protegerte.","seoTitle":"Blog de planificación familiar y anticoncepción|Find My Method"},"hero":{"title":"Blog de Sexo","linkUrl":null,"linkLabel":null,"intro":"El sexo es divertido ... y desordenado, juguetón, íntimo, tierno, caliente y alegre. El sexo es muchas cosas y también lo es hablar de ello. En este espacio, seleccionamos conversaciones, historias y consejos sobre lo que significa el sexo para nosotros y nuestros lectores.","image":{"sourceUrl":"https://fmm-admin.safe2choose.org/wp-content/uploads/2021/11/Hero-Banner_Blog.svg"}}}}]},"Languages":{"edges":[{"node":{"id":"cG9zdDo1NDkx","fmmCore":{"languageCode":"km","frontendSlug":"/blog"}}},{"node":{"id":"cG9zdDo1NDg5","fmmCore":{"languageCode":"tr","frontendSlug":"/blog"}}},{"node":{"id":"cG9zdDo1NDg3","fmmCore":{"languageCode":"ur","frontendSlug":"/blog"}}},{"node":{"id":"cG9zdDo1NDg1","fmmCore":{"languageCode":"my","frontendSlug":"/blog"}}},{"node":{"id":"cG9zdDo1NDgz","fmmCore":{"languageCode":"sw","frontendSlug":"/blog"}}},{"node":{"id":"cG9zdDo1NDgx","fmmCore":{"languageCode":"yo","frontendSlug":"/blog"}}},{"node":{"id":"cG9zdDo1NDc5","fmmCore":{"languageCode":"pt","frontendSlug":"/blog"}}},{"node":{"id":"cG9zdDo1NDc3","fmmCore":{"languageCode":"bn","frontendSlug":"/blog"}}},{"node":{"id":"cG9zdDo1NDc1","fmmCore":{"languageCode":"tl","frontendSlug":"/blog"}}},{"node":{"id":"cG9zdDo1NDcz","fmmCore":{"languageCode":"hi","frontendSlug":"/blog"}}},{"node":{"id":"cG9zdDo1NDcx","fmmCore":{"languageCode":"ar","frontendSlug":"/blog"}}},{"node":{"id":"cG9zdDo0NTc=","fmmCore":{"languageCode":"fr","frontendSlug":"/blog"}}},{"node":{"id":"cG9zdDo0MDk=","fmmCore":{"languageCode":"es","frontendSlug":"/blog"}}},{"node":{"id":"cG9zdDo0MDU=","fmmCore":{"languageCode":"en","frontendSlug":"/blog"}}}]},"BlogPosts":{"nodes":[{"slug":"5-maneras-para-reducir-que-los-metodos-anticonceptivos-fracasen-y-prevenir-embarazos","title":"5 Maneras Para Reducir Que Los Métodos Anticonceptivos Fracasen y Prevenir Embarazos.","excerpt":"<p>Gran parte de nosotras ha leído y visto la historia de la Cenicienta; especialmente la parte en la que ella sale corriendo de la fiesta porque ya casi era medianoche y el mágico hechizo bajo el que estaba iba desapareciendo. En el ajetreo y el alboroto, deja una de sus zapatillas de cristal. El príncipe&hellip; <a class=\"more-link\" href=\"/2020/08/11/5-maneras-para-reducir-que-los-metodos-anticonceptivos-fracasen-y-prevenir-embarazos/\">Continue reading <span class=\"screen-reader-text\">5 Maneras Para Reducir Que Los Métodos Anticonceptivos Fracasen y Prevenir Embarazos.</span></a></p>\n","date":"11  August, 2020","featuredImage":{"node":{"localFile":{"childImageSharp":{"fluid":{"base64":"data:image/jpeg;base64,/9j/2wBDABALDA4MChAODQ4SERATGCgaGBYWGDEjJR0oOjM9PDkzODdASFxOQERXRTc4UG1RV19iZ2hnPk1xeXBkeFxlZ2P/2wBDARESEhgVGC8aGi9jQjhCY2NjY2NjY2NjY2NjY2NjY2NjY2NjY2NjY2NjY2NjY2NjY2NjY2NjY2NjY2NjY2NjY2P/wgARCAAJABQDASIAAhEBAxEB/8QAFwAAAwEAAAAAAAAAAAAAAAAAAAQFAv/EABUBAQEAAAAAAAAAAAAAAAAAAAAC/9oADAMBAAIQAxAAAAF2TQVmnTYf/8QAHBAAAgEFAQAAAAAAAAAAAAAAAgMRAAEEEjEy/9oACAEBAAEFAnakJqGMe8Jfwfdf/8QAFxEBAAMAAAAAAAAAAAAAAAAAAAERUf/aAAgBAwEBPwGMU//EABYRAQEBAAAAAAAAAAAAAAAAAAABEf/aAAgBAgEBPwGtf//EABoQAAICAwAAAAAAAAAAAAAAAAECABIgITH/2gAIAQEABj8Cq0NeiKGO8P/EABsQAAICAwEAAAAAAAAAAAAAAAABMUERIXGx/9oACAEBAAE/Idbt5jo8nJUESRWeyJuFn//aAAwDAQACAAMAAAAQLC//xAAXEQEBAQEAAAAAAAAAAAAAAAABABGB/9oACAEDAQE/EM9SRv/EABcRAQEBAQAAAAAAAAAAAAAAAAEAETH/2gAIAQIBAT8Q12El/8QAHRAAAQQDAQEAAAAAAAAAAAAAAQARITFBcaGx8P/aAAgBAQABPxCMKQLBhU4dA4DuG3tFboyDYgPHFT8QVxvQjba//9k=","aspectRatio":2.1733333333333333,"src":"/static/94b24cbfa1de08c9610eb53021cfe387/bdff6/5-ways-to-reduce-contraceptive-failure-MAIN.jpg","srcSet":"/static/94b24cbfa1de08c9610eb53021cfe387/a5aa4/5-ways-to-reduce-contraceptive-failure-MAIN.jpg 163w,\n/static/94b24cbfa1de08c9610eb53021cfe387/b620b/5-ways-to-reduce-contraceptive-failure-MAIN.jpg 325w,\n/static/94b24cbfa1de08c9610eb53021cfe387/bdff6/5-ways-to-reduce-contraceptive-failure-MAIN.jpg 650w,\n/static/94b24cbfa1de08c9610eb53021cfe387/4b47f/5-ways-to-reduce-contraceptive-failure-MAIN.jpg 780w","sizes":"(max-width: 650px) 100vw, 650px"}}}}},"fmmCore":{"frontendSlug":"blog/5-ways-to-reduce-contraceptive-failure/","languageCode":"es"}},{"slug":"como-fue-tener-sexo-por-primera-vez","title":"¿Cómo Fue Tener Sexo por Primera Vez?","excerpt":"<p>Tan simple como puede parecer, el sexo también es muy misterioso, sobre todo cuando vas a tener sexo por primera vez. ¿Siempre duele?, ¿tendré un orgasmo?, ¿debería esperar? No hay una respuesta correcta y cada persona tiene una experiencia única. Desde el amor puro hasta leves decepciones, lee lo que algunas mujeres contaron anónimamente a&hellip; <a class=\"more-link\" href=\"/2020/07/29/como-fue-tener-sexo-por-primera-vez/\">Continue reading <span class=\"screen-reader-text\">¿Cómo Fue Tener Sexo por Primera Vez?</span></a></p>\n","date":"29  July, 2020","featuredImage":{"node":{"localFile":{"childImageSharp":{"fluid":{"base64":"data:image/jpeg;base64,/9j/2wBDABALDA4MChAODQ4SERATGCgaGBYWGDEjJR0oOjM9PDkzODdASFxOQERXRTc4UG1RV19iZ2hnPk1xeXBkeFxlZ2P/2wBDARESEhgVGC8aGi9jQjhCY2NjY2NjY2NjY2NjY2NjY2NjY2NjY2NjY2NjY2NjY2NjY2NjY2NjY2NjY2NjY2NjY2P/wgARCAAJABQDASIAAhEBAxEB/8QAFgABAQEAAAAAAAAAAAAAAAAABAAF/8QAFAEBAAAAAAAAAAAAAAAAAAAAAP/aAAwDAQACEAMQAAABwHgYDqP/xAAZEAACAwEAAAAAAAAAAAAAAAABAwACEAT/2gAIAQEAAQUCjRUIzoz/xAAUEQEAAAAAAAAAAAAAAAAAAAAQ/9oACAEDAQE/AT//xAAUEQEAAAAAAAAAAAAAAAAAAAAQ/9oACAECAQE/AT//xAAcEAABAwUAAAAAAAAAAAAAAAABAAMQERJBcXP/2gAIAQEABj8CTdhqM7lvmI//xAAaEAABBQEAAAAAAAAAAAAAAAAQABEhMWHh/9oACAEBAAE/IU2TJrg3E//aAAwDAQACAAMAAAAQt9//xAAUEQEAAAAAAAAAAAAAAAAAAAAQ/9oACAEDAQE/ED//xAAUEQEAAAAAAAAAAAAAAAAAAAAQ/9oACAECAQE/ED//xAAcEAEAAQQDAAAAAAAAAAAAAAABEQAQMWFBUfD/2gAIAQEAAT8QKQ06kkFZIeka5sV7u7f/2Q==","aspectRatio":2.1733333333333333,"src":"/static/43a741d9d0b9d87dc516d6b105f80913/bdff6/first-time-sex-MAIN.jpg","srcSet":"/static/43a741d9d0b9d87dc516d6b105f80913/a5aa4/first-time-sex-MAIN.jpg 163w,\n/static/43a741d9d0b9d87dc516d6b105f80913/b620b/first-time-sex-MAIN.jpg 325w,\n/static/43a741d9d0b9d87dc516d6b105f80913/bdff6/first-time-sex-MAIN.jpg 650w,\n/static/43a741d9d0b9d87dc516d6b105f80913/4b47f/first-time-sex-MAIN.jpg 780w","sizes":"(max-width: 650px) 100vw, 650px"}}}}},"fmmCore":{"frontendSlug":"blog/first-time-sex/","languageCode":"es"}}],"pageInfo":{"currentPage":7,"hasNextPage":false,"hasPreviousPage":true,"itemCount":2,"pageCount":7,"perPage":10,"totalCount":62}},"BlogPostsEnglish":{"nodes":[{"slug":"what-was-it-like-to-have-sex-for-the-first-time","title":"What Was it Like to Have Sex for The First Time? ","excerpt":"<p>Women share their stories of love, surprises and disappointments the first time they got laid. </p>\n","date":"29  July, 2020","featuredImage":{"node":{"localFile":{"childImageSharp":{"fluid":{"base64":"data:image/jpeg;base64,/9j/2wBDABALDA4MChAODQ4SERATGCgaGBYWGDEjJR0oOjM9PDkzODdASFxOQERXRTc4UG1RV19iZ2hnPk1xeXBkeFxlZ2P/2wBDARESEhgVGC8aGi9jQjhCY2NjY2NjY2NjY2NjY2NjY2NjY2NjY2NjY2NjY2NjY2NjY2NjY2NjY2NjY2NjY2NjY2P/wgARCAAJABQDASIAAhEBAxEB/8QAFgABAQEAAAAAAAAAAAAAAAAABAAF/8QAFAEBAAAAAAAAAAAAAAAAAAAAAP/aAAwDAQACEAMQAAABwHgYDqP/xAAZEAACAwEAAAAAAAAAAAAAAAABAwACEAT/2gAIAQEAAQUCjRUIzoz/xAAUEQEAAAAAAAAAAAAAAAAAAAAQ/9oACAEDAQE/AT//xAAUEQEAAAAAAAAAAAAAAAAAAAAQ/9oACAECAQE/AT//xAAcEAABAwUAAAAAAAAAAAAAAAABAAMQERJBcXP/2gAIAQEABj8CTdhqM7lvmI//xAAaEAABBQEAAAAAAAAAAAAAAAAQABEhMWHh/9oACAEBAAE/IU2TJrg3E//aAAwDAQACAAMAAAAQt9//xAAUEQEAAAAAAAAAAAAAAAAAAAAQ/9oACAEDAQE/ED//xAAUEQEAAAAAAAAAAAAAAAAAAAAQ/9oACAECAQE/ED//xAAcEAEAAQQDAAAAAAAAAAAAAAABEQAQMWFBUfD/2gAIAQEAAT8QKQ06kkFZIeka5sV7u7f/2Q==","aspectRatio":2.1733333333333333,"src":"/static/43a741d9d0b9d87dc516d6b105f80913/bdff6/first-time-sex-MAIN.jpg","srcSet":"/static/43a741d9d0b9d87dc516d6b105f80913/a5aa4/first-time-sex-MAIN.jpg 163w,\n/static/43a741d9d0b9d87dc516d6b105f80913/b620b/first-time-sex-MAIN.jpg 325w,\n/static/43a741d9d0b9d87dc516d6b105f80913/bdff6/first-time-sex-MAIN.jpg 650w,\n/static/43a741d9d0b9d87dc516d6b105f80913/4b47f/first-time-sex-MAIN.jpg 780w","sizes":"(max-width: 650px) 100vw, 650px"}}}}},"fmmCore":{"frontendSlug":"blog/first-time-sex/","languageCode":"en"}},{"slug":"in-japan-birth-control-and-the-fight-over-womens-bodies","title":"In Japan, Birth Control and The Fight Over Women’s Bodies","excerpt":"<p>Sex is mainly about procreation and access to contraception is a polarizing issue in the land of anime and cars. </p>\n","date":"20  July, 2020","featuredImage":{"node":{"localFile":{"childImageSharp":{"fluid":{"base64":"data:image/jpeg;base64,/9j/2wBDABALDA4MChAODQ4SERATGCgaGBYWGDEjJR0oOjM9PDkzODdASFxOQERXRTc4UG1RV19iZ2hnPk1xeXBkeFxlZ2P/2wBDARESEhgVGC8aGi9jQjhCY2NjY2NjY2NjY2NjY2NjY2NjY2NjY2NjY2NjY2NjY2NjY2NjY2NjY2NjY2NjY2NjY2P/wgARCAAJABQDASIAAhEBAxEB/8QAFgABAQEAAAAAAAAAAAAAAAAAAQIA/8QAFgEBAQEAAAAAAAAAAAAAAAAAAAEC/9oADAMBAAIQAxAAAAFunNjGP//EABkQAAIDAQAAAAAAAAAAAAAAAAIxARITIv/aAAgBAQABBQLIacWlm5Zv/8QAFBEBAAAAAAAAAAAAAAAAAAAAEP/aAAgBAwEBPwE//8QAFBEBAAAAAAAAAAAAAAAAAAAAEP/aAAgBAgEBPwE//8QAGhAAAgIDAAAAAAAAAAAAAAAAARAAAhESMf/aAAgBAQAGPwLFyZp1B//EABoQAAICAwAAAAAAAAAAAAAAAAEhAGERIDH/2gAIAQEAAT8hBxY3yKZBHiWHQj//2gAMAwEAAgADAAAAEOw//8QAFxEBAAMAAAAAAAAAAAAAAAAAAAEhYf/aAAgBAwEBPxCMU//EABgRAAIDAAAAAAAAAAAAAAAAAAABETFR/9oACAECAQE/EKIen//EAB4QAAIBAwUAAAAAAAAAAAAAAAERACExQYGRobHB/9oACAEBAAE/EA3AIEEaLGYbpdqAFhR2e1acmWJ6dmf/2Q==","aspectRatio":2.1733333333333333,"src":"/static/13d81016457ecf9c038824e9ff5af1ef/bdff6/birth-control-in-japan-MAIN.jpg","srcSet":"/static/13d81016457ecf9c038824e9ff5af1ef/a5aa4/birth-control-in-japan-MAIN.jpg 163w,\n/static/13d81016457ecf9c038824e9ff5af1ef/b620b/birth-control-in-japan-MAIN.jpg 325w,\n/static/13d81016457ecf9c038824e9ff5af1ef/bdff6/birth-control-in-japan-MAIN.jpg 650w,\n/static/13d81016457ecf9c038824e9ff5af1ef/4b47f/birth-control-in-japan-MAIN.jpg 780w","sizes":"(max-width: 650px) 100vw, 650px"}}}}},"fmmCore":{"frontendSlug":"blog/birth-control-in-japan/","languageCode":"en"}},{"slug":"beyond-pleasure-and-pee-self-care-tips-for-your-penis","title":"Beyond Pleasure and Pee: Self-Care Tips for Your Penis ","excerpt":"<p>From regular balls check, healthy diet to routine exercise, here’s how you can improve your penile health.</p>\n","date":"13  July, 2020","featuredImage":{"node":{"localFile":{"childImageSharp":{"fluid":{"base64":"data:image/png;base64,iVBORw0KGgoAAAANSUhEUgAAABQAAAAJCAIAAAC9o5sfAAAACXBIWXMAAAsTAAALEwEAmpwYAAABTklEQVQoz33QMUvDUBQF4AyCP0GcXBwc/Qvi5iqCq6MOgkNBBAcHQQSLVAWLg9AiBcX0JS+1yXsvaWvFoYqoqCBCrdh3b9rYKLVo3aS6lBoLZzwfnHsVaWltIW7GqohYlUfd7BGcqPJec6/2PTuG3ECuA9fb+0q7BJ72xHYtOesZK7WLuHenIpz7ZOJ9axhzGeQaCl2yYKwh15ET4IZkvGJH366X69lp3w75e5PomK5NUVBgejAGpqOgyFTg7CW/9pEbaq4qfmHdK51Wc9QVRgtb/2Bp6a1tTENBG5dTX/ne+ma/V9jxy453xsHsdvNvkmCmXo8XmreDnwc9lfBY9Wa3VjQgQ8HsaHZiApyWSOJZHWjEFZzpe5wbRy2EPAppAlZXXDYJCuPhMOEsjhbnR54iSzKxIeNhSWJ/BgbP/nmbaYCdQocCI5IRaZFA/A3HE5WB3V9lugAAAABJRU5ErkJggg==","aspectRatio":2.1733333333333333,"src":"/static/1df55719ac182627b9317bb72f2fbd00/f79c2/self-care-tips-for-your-penis-MAIN.png","srcSet":"/static/1df55719ac182627b9317bb72f2fbd00/2d425/self-care-tips-for-your-penis-MAIN.png 163w,\n/static/1df55719ac182627b9317bb72f2fbd00/e12c4/self-care-tips-for-your-penis-MAIN.png 325w,\n/static/1df55719ac182627b9317bb72f2fbd00/f79c2/self-care-tips-for-your-penis-MAIN.png 650w,\n/static/1df55719ac182627b9317bb72f2fbd00/e1325/self-care-tips-for-your-penis-MAIN.png 780w","sizes":"(max-width: 650px) 100vw, 650px"}}}}},"fmmCore":{"frontendSlug":"blog/self-care-tips-for-your-penis/","languageCode":"en"}},{"slug":"coronavirus-puts-womens-health-at-risk-in-philippines","title":"Coronavirus Puts Women’s Health at Risk in Philippines","excerpt":"<p>A rising number of pregnant women have died because they were denied medical treatment due to the pandemic. </p>\n","date":"06  July, 2020","featuredImage":{"node":{"localFile":{"childImageSharp":{"fluid":{"base64":"data:image/jpeg;base64,/9j/2wBDABALDA4MChAODQ4SERATGCgaGBYWGDEjJR0oOjM9PDkzODdASFxOQERXRTc4UG1RV19iZ2hnPk1xeXBkeFxlZ2P/2wBDARESEhgVGC8aGi9jQjhCY2NjY2NjY2NjY2NjY2NjY2NjY2NjY2NjY2NjY2NjY2NjY2NjY2NjY2NjY2NjY2NjY2P/wgARCAAJABQDASIAAhEBAxEB/8QAFwAAAwEAAAAAAAAAAAAAAAAAAAQFA//EABYBAQEBAAAAAAAAAAAAAAAAAAMBAv/aAAwDAQACEAMQAAABmUpbhLoMEz//xAAbEAABBQEBAAAAAAAAAAAAAAABAAIDETIEM//aAAgBAQABBQK7VAtMbVBuH26N/wD/xAAVEQEBAAAAAAAAAAAAAAAAAAAQQf/aAAgBAwEBPwGH/8QAFhEBAQEAAAAAAAAAAAAAAAAAABFB/9oACAECAQE/AdV//8QAHRAAAgIBBQAAAAAAAAAAAAAAAAECQREQEiFygf/aAAgBAQAGPwK2YtizLbxa0h2PD//EABwQAQABBAMAAAAAAAAAAAAAAAEAESExgRBBsf/aAAgBAQABPyEY0NMwt1bY6gilXSHhwOGP/9oADAMBAAIAAwAAABAjH//EABgRAAMBAQAAAAAAAAAAAAAAAAABETFR/9oACAEDAQE/ELvpEj//xAAWEQEBAQAAAAAAAAAAAAAAAAABAJH/2gAIAQIBAT8QTMJv/8QAHRABAAIBBQEAAAAAAAAAAAAAAQARITFBUaGxcf/aAAgBAQABPxAEqJlog2hwsuRYmg2lpdC3XVzNT7nY+TrvWf/Z","aspectRatio":2.1733333333333333,"src":"/static/77973688c2b68a94c35d6acdd868d0c6/bdff6/coronavirus-puts-womens-health-at-risk-in-philippines-MAIN.jpg","srcSet":"/static/77973688c2b68a94c35d6acdd868d0c6/a5aa4/coronavirus-puts-womens-health-at-risk-in-philippines-MAIN.jpg 163w,\n/static/77973688c2b68a94c35d6acdd868d0c6/b620b/coronavirus-puts-womens-health-at-risk-in-philippines-MAIN.jpg 325w,\n/static/77973688c2b68a94c35d6acdd868d0c6/bdff6/coronavirus-puts-womens-health-at-risk-in-philippines-MAIN.jpg 650w,\n/static/77973688c2b68a94c35d6acdd868d0c6/4b47f/coronavirus-puts-womens-health-at-risk-in-philippines-MAIN.jpg 780w","sizes":"(max-width: 650px) 100vw, 650px"}}}}},"fmmCore":{"frontendSlug":"blog/coronavirus-puts-womens-health-at-risk-in-philippines/","languageCode":"en"}},{"slug":"what-women-want-in-bed","title":"What Women Want in Bed","excerpt":"<p>Find My Method asked women about their wildest sex fantasies, biggest turn ons and kinky desires; and they did not disappoint.</p>\n","date":"29  June, 2020","featuredImage":{"node":{"localFile":{"childImageSharp":{"fluid":{"base64":"data:image/jpeg;base64,/9j/2wBDABALDA4MChAODQ4SERATGCgaGBYWGDEjJR0oOjM9PDkzODdASFxOQERXRTc4UG1RV19iZ2hnPk1xeXBkeFxlZ2P/2wBDARESEhgVGC8aGi9jQjhCY2NjY2NjY2NjY2NjY2NjY2NjY2NjY2NjY2NjY2NjY2NjY2NjY2NjY2NjY2NjY2NjY2P/wgARCAAJABQDASIAAhEBAxEB/8QAFwAAAwEAAAAAAAAAAAAAAAAAAAEEAv/EABUBAQEAAAAAAAAAAAAAAAAAAAEA/9oADAMBAAIQAxAAAAFwStkYB//EABkQAAIDAQAAAAAAAAAAAAAAAAACAQMTQf/aAAgBAQABBQLeC59GFOH/xAAUEQEAAAAAAAAAAAAAAAAAAAAQ/9oACAEDAQE/AT//xAAUEQEAAAAAAAAAAAAAAAAAAAAQ/9oACAECAQE/AT//xAAZEAABBQAAAAAAAAAAAAAAAAABABEgITL/2gAIAQEABj8C2U5NR//EABkQAQEBAQEBAAAAAAAAAAAAAAEAMREhcf/aAAgBAQABPyEfB+S9Q9+E8LM6nb//2gAMAwEAAgADAAAAEMzf/8QAFREBAQAAAAAAAAAAAAAAAAAAARD/2gAIAQMBAT8QCf/EABURAQEAAAAAAAAAAAAAAAAAAAEQ/9oACAECAQE/EFn/xAAaEAEBAQEAAwAAAAAAAAAAAAABEQAxIXGx/9oACAEBAAE/EBfHyKRJ6dOogpIc4c1SBZuu+3dN/9k=","aspectRatio":2.1733333333333333,"src":"/static/2b8d56842ad9535c7407e242b4a6ca79/bdff6/what-women-want-in-bed-MAIN.jpg","srcSet":"/static/2b8d56842ad9535c7407e242b4a6ca79/a5aa4/what-women-want-in-bed-MAIN.jpg 163w,\n/static/2b8d56842ad9535c7407e242b4a6ca79/b620b/what-women-want-in-bed-MAIN.jpg 325w,\n/static/2b8d56842ad9535c7407e242b4a6ca79/bdff6/what-women-want-in-bed-MAIN.jpg 650w,\n/static/2b8d56842ad9535c7407e242b4a6ca79/4b47f/what-women-want-in-bed-MAIN.jpg 780w","sizes":"(max-width: 650px) 100vw, 650px"}}}}},"fmmCore":{"frontendSlug":"blog/what-women-want-in-bed/","languageCode":"en"}},{"slug":"for-japanese-women-access-to-birth-control-is-few-and-far-between","title":"For Japanese Women, Access to Birth Control is Few and Far Between","excerpt":"<p>Activist Kazuko Fukuda gives a lowdown on sex, pleasure and reproductive health in Japan.</p>\n","date":"18  June, 2020","featuredImage":{"node":{"localFile":{"childImageSharp":{"fluid":{"base64":"data:image/jpeg;base64,/9j/2wBDABALDA4MChAODQ4SERATGCgaGBYWGDEjJR0oOjM9PDkzODdASFxOQERXRTc4UG1RV19iZ2hnPk1xeXBkeFxlZ2P/2wBDARESEhgVGC8aGi9jQjhCY2NjY2NjY2NjY2NjY2NjY2NjY2NjY2NjY2NjY2NjY2NjY2NjY2NjY2NjY2NjY2NjY2P/wgARCAAJABQDASIAAhEBAxEB/8QAGAAAAwEBAAAAAAAAAAAAAAAAAAMEAQL/xAAVAQEBAAAAAAAAAAAAAAAAAAABA//aAAwDAQACEAMQAAABj625FCyF/wD/xAAcEAACAAcAAAAAAAAAAAAAAAABAgMTISIxM0T/2gAIAQEAAQUCulmG6qhpyvqGP//EABYRAQEBAAAAAAAAAAAAAAAAAAAREv/aAAgBAwEBPwHSv//EABYRAQEBAAAAAAAAAAAAAAAAAAAREv/aAAgBAgEBPwHKP//EABkQAAMAAwAAAAAAAAAAAAAAAAABIQIQEf/aAAgBAQAGPwLpVC6yEf/EABsQAQACAgMAAAAAAAAAAAAAAAEAERAxIVGh/9oACAEBAAE/IV4a709SyJQtWAajL+af/9oADAMBAAIAAwAAABBE/wD/xAAXEQEBAQEAAAAAAAAAAAAAAAABABFh/9oACAEDAQE/EF6dYWX/xAAWEQEBAQAAAAAAAAAAAAAAAAABABH/2gAIAQIBAT8QQEjb/8QAGxABAQEAAwEBAAAAAAAAAAAAAREAMaGxIcH/2gAIAQEAAT8QejrIFGPrdGZZggXjvSyo0F5Mfj3dY9N0m//Z","aspectRatio":2.1733333333333333,"src":"/static/da8fe6f56cf229cb63f1dd86b12de178/bdff6/for-japanese-women-access-to-birth-control-is-few-and-far-between-MAIN.jpg","srcSet":"/static/da8fe6f56cf229cb63f1dd86b12de178/a5aa4/for-japanese-women-access-to-birth-control-is-few-and-far-between-MAIN.jpg 163w,\n/static/da8fe6f56cf229cb63f1dd86b12de178/b620b/for-japanese-women-access-to-birth-control-is-few-and-far-between-MAIN.jpg 325w,\n/static/da8fe6f56cf229cb63f1dd86b12de178/bdff6/for-japanese-women-access-to-birth-control-is-few-and-far-between-MAIN.jpg 650w,\n/static/da8fe6f56cf229cb63f1dd86b12de178/4b47f/for-japanese-women-access-to-birth-control-is-few-and-far-between-MAIN.jpg 780w","sizes":"(max-width: 650px) 100vw, 650px"}}}}},"fmmCore":{"frontendSlug":"blog/for-japanese-women-access-to-birth-control-is-few-and-far-between/","languageCode":"en"}},{"slug":"use-coronavirus-lockdown-time-to-spice-up-your-sex-life","title":"Use Coronavirus Lockdown Time to Spice Up Your Sex Life","excerpt":"<p>Did you think COVID-19 lockdown meant no sex? Well, well, well; let me tell you a secret &#8211; it can actually mean the opposite. Sex, and some more. If your busy lifestyle was sapping the horny out of you, the quarantine is your chance to put it back in and that too with full force.&hellip; <a class=\"more-link\" href=\"/2020/05/26/use-coronavirus-lockdown-time-to-spice-up-your-sex-life/\">Continue reading <span class=\"screen-reader-text\">Use Coronavirus Lockdown Time to Spice Up Your Sex Life</span></a></p>\n","date":"26  May, 2020","featuredImage":{"node":{"localFile":{"childImageSharp":{"fluid":{"base64":"data:image/jpeg;base64,/9j/2wBDABALDA4MChAODQ4SERATGCgaGBYWGDEjJR0oOjM9PDkzODdASFxOQERXRTc4UG1RV19iZ2hnPk1xeXBkeFxlZ2P/2wBDARESEhgVGC8aGi9jQjhCY2NjY2NjY2NjY2NjY2NjY2NjY2NjY2NjY2NjY2NjY2NjY2NjY2NjY2NjY2NjY2NjY2P/wgARCAAJABQDASIAAhEBAxEB/8QAFwAAAwEAAAAAAAAAAAAAAAAAAAIFBP/EABQBAQAAAAAAAAAAAAAAAAAAAAD/2gAMAwEAAhADEAAAAaDpMNQ4f//EABgQAQEBAQEAAAAAAAAAAAAAAAECAzIz/9oACAEBAAEFArULoc8FmNfKOM+f/8QAFBEBAAAAAAAAAAAAAAAAAAAAEP/aAAgBAwEBPwE//8QAFBEBAAAAAAAAAAAAAAAAAAAAEP/aAAgBAgEBPwE//8QAGhAAAQUBAAAAAAAAAAAAAAAAAAECEBExQf/aAAgBAQAGPwK7w3SnL0UbH//EAB0QAAICAQUAAAAAAAAAAAAAAAABESEQMUFRobH/2gAIAQEAAT8h5zINCaQPrkpovbC757H/2gAMAwEAAgADAAAAEOMP/8QAFBEBAAAAAAAAAAAAAAAAAAAAEP/aAAgBAwEBPxA//8QAFBEBAAAAAAAAAAAAAAAAAAAAEP/aAAgBAgEBPxA//8QAHhABAQACAAcAAAAAAAAAAAAAAREAIRAxUWFxobH/2gAIAQEAAT8Qu4dACTvcdamNG1mOxCVXUcH7X7nP8s//2Q==","aspectRatio":2.1733333333333333,"src":"/static/80ee63ea510c58ed9733163fabd97340/bdff6/use-coronavirus-lockdown-time-to-spice-up-your-sex-life-MAIN.jpg","srcSet":"/static/80ee63ea510c58ed9733163fabd97340/a5aa4/use-coronavirus-lockdown-time-to-spice-up-your-sex-life-MAIN.jpg 163w,\n/static/80ee63ea510c58ed9733163fabd97340/b620b/use-coronavirus-lockdown-time-to-spice-up-your-sex-life-MAIN.jpg 325w,\n/static/80ee63ea510c58ed9733163fabd97340/bdff6/use-coronavirus-lockdown-time-to-spice-up-your-sex-life-MAIN.jpg 650w,\n/static/80ee63ea510c58ed9733163fabd97340/4b47f/use-coronavirus-lockdown-time-to-spice-up-your-sex-life-MAIN.jpg 780w","sizes":"(max-width: 650px) 100vw, 650px"}}}}},"fmmCore":{"frontendSlug":"blog/use-coronavirus-lockdown-time-to-spice-up-your-sex-life/","languageCode":"en"}},{"slug":"contraception-in-the-time-of-covid-19","title":"Contraception in The Time of COVID-19","excerpt":"<p>We&#8217;re living in very unusual times. The world is in COVID-19 lockdown, and most people are experiencing big changes in their daily lives. It&#8217;s too soon to tell if, with people stuck at home, there has been an increase in sexual activity. People are stressed with caring for their families and reading too much news,&hellip; <a class=\"more-link\" href=\"/2020/04/14/contraception-in-the-time-of-covid-19/\">Continue reading <span class=\"screen-reader-text\">Contraception in The Time of COVID-19</span></a></p>\n","date":"14  April, 2020","featuredImage":{"node":{"localFile":{"childImageSharp":{"fluid":{"base64":"data:image/jpeg;base64,/9j/2wBDABALDA4MChAODQ4SERATGCgaGBYWGDEjJR0oOjM9PDkzODdASFxOQERXRTc4UG1RV19iZ2hnPk1xeXBkeFxlZ2P/2wBDARESEhgVGC8aGi9jQjhCY2NjY2NjY2NjY2NjY2NjY2NjY2NjY2NjY2NjY2NjY2NjY2NjY2NjY2NjY2NjY2NjY2P/wgARCAAJABQDASIAAhEBAxEB/8QAGAAAAgMAAAAAAAAAAAAAAAAAAAMBBAX/xAAVAQEBAAAAAAAAAAAAAAAAAAAAAf/aAAwDAQACEAMQAAAB103ZVYwT/8QAGhAAAgIDAAAAAAAAAAAAAAAAAQIDMQARM//aAAgBAQABBQKRNlyzLHzNYK//xAAUEQEAAAAAAAAAAAAAAAAAAAAQ/9oACAEDAQE/AT//xAAUEQEAAAAAAAAAAAAAAAAAAAAQ/9oACAECAQE/AT//xAAaEAACAgMAAAAAAAAAAAAAAAAAAQISICFx/9oACAEBAAY/AraJJojzD//EABsQAAIDAAMAAAAAAAAAAAAAAAARASExEEFh/9oACAEBAAE/IYIEaFasR76z0SjE4pwwP//aAAwDAQACAAMAAAAQgw//xAAXEQEBAQEAAAAAAAAAAAAAAAABERAx/9oACAEDAQE/ECAs7n//xAAWEQADAAAAAAAAAAAAAAAAAAABECH/2gAIAQIBAT8QNX//xAAdEAEAAgICAwAAAAAAAAAAAAABETEAQSFxEKGx/9oACAEBAAE/EOYiCiE1OycUCRAsLEg74zeaE9Zf2ffF6Gf/2Q==","aspectRatio":2.1733333333333333,"src":"/static/f211622f4be46b2d5879e0962274ff90/bdff6/contraception-in-time-covid.jpg","srcSet":"/static/f211622f4be46b2d5879e0962274ff90/a5aa4/contraception-in-time-covid.jpg 163w,\n/static/f211622f4be46b2d5879e0962274ff90/b620b/contraception-in-time-covid.jpg 325w,\n/static/f211622f4be46b2d5879e0962274ff90/bdff6/contraception-in-time-covid.jpg 650w,\n/static/f211622f4be46b2d5879e0962274ff90/e107e/contraception-in-time-covid.jpg 975w,\n/static/f211622f4be46b2d5879e0962274ff90/103ea/contraception-in-time-covid.jpg 1024w","sizes":"(max-width: 650px) 100vw, 650px"}}}}},"fmmCore":{"frontendSlug":"blog/contraception-and-coronavirus-covid19/","languageCode":"en"}},{"slug":"tips-for-parents-to-talk-to-their-adolescents-about-sex-and-contraception","title":"Tips for Parents to Talk to Their Adolescents About Sex and Contraception","excerpt":"<p>Kids grow up fast. With all the changes that comes with puberty and discovering their own body, they are also getting more and more curious about sex, yes SEX. It can be awkward to discuss sex with them, but also important that your attitudes towards sex and relationships are more than you realize: and your&hellip; <a class=\"more-link\" href=\"/2020/03/25/tips-for-parents-to-talk-to-their-adolescents-about-sex-and-contraception/\">Continue reading <span class=\"screen-reader-text\">Tips for Parents to Talk to Their Adolescents About Sex and Contraception</span></a></p>\n","date":"25  March, 2020","featuredImage":{"node":{"localFile":{"childImageSharp":{"fluid":{"base64":"data:image/jpeg;base64,/9j/2wBDABALDA4MChAODQ4SERATGCgaGBYWGDEjJR0oOjM9PDkzODdASFxOQERXRTc4UG1RV19iZ2hnPk1xeXBkeFxlZ2P/2wBDARESEhgVGC8aGi9jQjhCY2NjY2NjY2NjY2NjY2NjY2NjY2NjY2NjY2NjY2NjY2NjY2NjY2NjY2NjY2NjY2NjY2P/wgARCAAJABQDASIAAhEBAxEB/8QAFgABAQEAAAAAAAAAAAAAAAAAAwAC/8QAFgEBAQEAAAAAAAAAAAAAAAAAAQAC/9oADAMBAAIQAxAAAAFFQc27Uv8A/8QAGxAAAgIDAQAAAAAAAAAAAAAAAQIDEgAEMTP/2gAIAQEAAQUC2YgxQBlpUydh9Tn/xAAWEQEBAQAAAAAAAAAAAAAAAAAAERL/2gAIAQMBAT8BrL//xAAWEQEBAQAAAAAAAAAAAAAAAAAAARH/2gAIAQIBAT8BrX//xAAbEAAABwEAAAAAAAAAAAAAAAAAAQIQITFBcf/aAAgBAQAGPwIlyIvQe9ZTf//EABoQAAICAwAAAAAAAAAAAAAAAAABETEhUaH/2gAIAQEAAT8hQWT0KbrEUEkk4FJwFj//2gAMAwEAAgADAAAAEJzP/8QAGBEBAQADAAAAAAAAAAAAAAAAAQARITH/2gAIAQMBAT8Q0QjI7f/EABgRAQEAAwAAAAAAAAAAAAAAAAEAESFB/9oACAECAQE/EBrMg5f/xAAeEAACAgEFAQAAAAAAAAAAAAAAARExIUFhcaGx8P/aAAgBAQABPxBCWXKwpQunMt16lgoM0ukdFn18Hgf/2Q==","aspectRatio":2.1733333333333333,"src":"/static/fc63a6bdbca9200421b95100132d233c/bdff6/tips-for-parents-to-talk-their-adolecents.jpg","srcSet":"/static/fc63a6bdbca9200421b95100132d233c/a5aa4/tips-for-parents-to-talk-their-adolecents.jpg 163w,\n/static/fc63a6bdbca9200421b95100132d233c/b620b/tips-for-parents-to-talk-their-adolecents.jpg 325w,\n/static/fc63a6bdbca9200421b95100132d233c/bdff6/tips-for-parents-to-talk-their-adolecents.jpg 650w,\n/static/fc63a6bdbca9200421b95100132d233c/e107e/tips-for-parents-to-talk-their-adolecents.jpg 975w,\n/static/fc63a6bdbca9200421b95100132d233c/33f88/tips-for-parents-to-talk-their-adolecents.jpg 1254w","sizes":"(max-width: 650px) 100vw, 650px"}}}}},"fmmCore":{"frontendSlug":"blog/tips-for-parents-to-talk-to-their-adolescents-about-sex-and-contraception/","languageCode":"en"}},{"slug":"hormones-and-contraception-debunkthemyth","title":"Hormones and Contraception #debunkTheMyth","excerpt":"<p>Although the internet allows us to have information at hand, many times we find more myths than information, and if we talk about contraceptive methods and hormones it&#8217;s even more important to tear down those myths so people can make a decision based on scientific facts. Let&#8217;s talk about myths about the use of hormones&hellip; <a class=\"more-link\" href=\"/2020/03/25/hormones-and-contraception-debunkthemyth/\">Continue reading <span class=\"screen-reader-text\">Hormones and Contraception #debunkTheMyth</span></a></p>\n","date":"25  March, 2020","featuredImage":{"node":{"localFile":{"childImageSharp":{"fluid":{"base64":"data:image/jpeg;base64,/9j/2wBDABALDA4MChAODQ4SERATGCgaGBYWGDEjJR0oOjM9PDkzODdASFxOQERXRTc4UG1RV19iZ2hnPk1xeXBkeFxlZ2P/2wBDARESEhgVGC8aGi9jQjhCY2NjY2NjY2NjY2NjY2NjY2NjY2NjY2NjY2NjY2NjY2NjY2NjY2NjY2NjY2NjY2NjY2P/wgARCAAJABQDASIAAhEBAxEB/8QAGAAAAwEBAAAAAAAAAAAAAAAAAAEDAgT/xAAVAQEBAAAAAAAAAAAAAAAAAAACA//aAAwDAQACEAMQAAABt1YoExFR/8QAHBAAAQMFAAAAAAAAAAAAAAAAAQIDMgAREhMx/9oACAEBAAEFAizmvWkUCbHjcUR//8QAFBEBAAAAAAAAAAAAAAAAAAAAEP/aAAgBAwEBPwE//8QAFBEBAAAAAAAAAAAAAAAAAAAAEP/aAAgBAgEBPwE//8QAGxAAAgEFAAAAAAAAAAAAAAAAAAEhEDJBcYH/2gAIAQEABj8CughLpge6/wD/xAAdEAACAQUBAQAAAAAAAAAAAAAAAREhMWGhsYHw/9oACAEBAAE/IXttWJpfAtkVaHZR6Z9eCwdn0//aAAwDAQACAAMAAAAQSx//xAAVEQEBAAAAAAAAAAAAAAAAAAABEP/aAAgBAwEBPxBWf//EABURAQEAAAAAAAAAAAAAAAAAAAEQ/9oACAECAQE/EACf/8QAHhAAAgICAgMAAAAAAAAAAAAAAREAITFBEPBhcYH/2gAIAQEAAT8QKBBEBtTC0txYCEN5fMILtC1QV6E7HhwsPS0//9k=","aspectRatio":2.1733333333333333,"src":"/static/9721ab195478bb5266b9f24d41f4ccc8/bdff6/hormones-and-contraception.jpg","srcSet":"/static/9721ab195478bb5266b9f24d41f4ccc8/a5aa4/hormones-and-contraception.jpg 163w,\n/static/9721ab195478bb5266b9f24d41f4ccc8/b620b/hormones-and-contraception.jpg 325w,\n/static/9721ab195478bb5266b9f24d41f4ccc8/bdff6/hormones-and-contraception.jpg 650w,\n/static/9721ab195478bb5266b9f24d41f4ccc8/e107e/hormones-and-contraception.jpg 975w,\n/static/9721ab195478bb5266b9f24d41f4ccc8/33f88/hormones-and-contraception.jpg 1254w","sizes":"(max-width: 650px) 100vw, 650px"}}}}},"fmmCore":{"frontendSlug":"blog/hormones-and-contraception/","languageCode":"en"}}],"pageInfo":{"currentPage":7,"hasNextPage":true,"hasPreviousPage":true,"itemCount":10,"pageCount":8,"perPage":10,"totalCount":72}},"FooterCopyright":{"edges":[]}},"pageContext":{"id":"cG9zdDo0MDk=","frontend_slug":"/blog","language_code":"es","glob_frontend_slug":"/blog/*","limit":10,"skip":60,"numOfBlogPages":7,"currentPage":7,"breadcrumb":{"location":"/blog/7","crumbs":[{"pathname":"/","crumbLabel":"Home"},{"pathname":"/blog","crumbLabel":"blog"},{"pathname":"/blog/7","crumbLabel":"7"}]}}},
    "staticQueryHashes": ["1271460761","2122397224","2364228080","2898838263","3893395773","63159454","697822104"]}